Engine/Binaries/Win64/UE4Game.exe	2020-10-05T17:30:27.583Z
Engine/Extras/Redist/en-us/UE4PrereqSetup_x64.exe	2020-10-05T17:31:29.860Z
Engine/Binaries/ThirdParty/Oculus/OVRPlugin/OVRPlugin/Win64/OVRPlugin.dll	2020-10-05T17:29:42.398Z
Engine/Binaries/ThirdParty/DbgHelp/dbghelp.dll	2020-10-05T17:29:33.473Z
Engine/Binaries/ThirdParty/libsndfile/Win64/libsndfile-1.dll	2020-10-05T17:29:34.693Z
Engine/Binaries/ThirdParty/Ogg/Win64/VS2015/libogg_64.dll	2020-10-05T17:29:42.402Z
Engine/Binaries/ThirdParty/Vorbis/Win64/VS2015/libvorbis_64.dll	2020-10-05T17:30:01.526Z
Engine/Binaries/ThirdParty/Vorbis/Win64/VS2015/libvorbisfile_64.dll	2020-10-05T17:30:01.527Z
Engine/Binaries/ThirdParty/NVIDIA/NVaftermath/Win64/GFSDK_Aftermath_Lib.x64.dll	2020-10-05T17:29:42.309Z
Engine/Binaries/ThirdParty/Windows/DirectX/x64/WinPixEventRuntime.dll	2020-10-05T17:30:01.874Z
Engine/Binaries/ThirdParty/PhysX3/Win64/VS2015/PxFoundationPROFILE_x64.dll	2020-10-05T17:29:48.906Z
Engine/Binaries/ThirdParty/PhysX3/Win64/VS2015/PxPvdSDKPROFILE_x64.dll	2020-10-05T17:29:48.915Z
Engine/Binaries/ThirdParty/PhysX3/Win64/VS2015/PhysX3PROFILE_x64.dll	2020-10-05T17:29:48.852Z
Engine/Binaries/ThirdParty/PhysX3/Win64/VS2015/PhysX3CookingPROFILE_x64.dll	2020-10-05T17:29:48.823Z
Engine/Binaries/ThirdParty/PhysX3/Win64/VS2015/PhysX3CommonPROFILE_x64.dll	2020-10-05T17:29:48.771Z
Engine/Binaries/ThirdParty/PhysX3/Win64/VS2015/APEX_ClothingPROFILE_x64.dll	2020-10-05T17:29:46.846Z
Engine/Binaries/ThirdParty/PhysX3/Win64/VS2015/APEX_LegacyPROFILE_x64.dll	2020-10-05T17:29:47.457Z
Engine/Binaries/ThirdParty/PhysX3/Win64/VS2015/ApexFrameworkPROFILE_x64.dll	2020-10-05T17:29:47.750Z
Engine/Binaries/ThirdParty/PhysX3/Win64/VS2015/NvClothPROFILE_x64.dll	2020-10-05T17:29:48.528Z
Engine/Binaries/ThirdParty/OpenVR/OpenVRv1_5_17/Win64/openvr_api.dll	2020-10-05T17:29:42.435Z
Prototype_IC06.exe	2020-10-06T11:19:00.521Z
